Macro II - Fluctuations - Part II - Opening Economy Extension
…
We observe rather high increase in the volatility of debt, but milder changes for capital, investment, output, labour, wages… In particular the RBC moments (std dev of investment / consumption over std dev of production) move very little.

Another interesting exercise consists in comparing the impulse response functions obtained with \(\kappa=0.000\), \(\kappa=0.001\) and \(\kappa=0.005\) (see code below).

In the short run, the dynamic responses are very similar for all variables, except consumption which does not jump anymore to its long run trend as long as there is a small friction on the interest rate. Overall the addition of the friction slows down the adjustment of production variables to the productivty shock.

In the long run, the friction implies a return to the initial steady-state counteracting the short term effect of the exogenous shock.

context_stationary_high_kappa = @dynare "rbc_open_stationary_kappa05.mod";

irfs_kappa_00 = context.results.model_results[1].irfs[:epsilon]
irfs_kappa_01 = context_stationary.results.model_results[1].irfs[:epsilon]
irfs_kappa_05 = context_stationary_high_kappa.results.model_results[1].irfs[:epsilon]

┌────┬───────────┬─────────────┬────────────┬────────────┬──────────────┬───────
│    │         k │           i │          y │          a │            n │      ⋯
├────┼───────────┼─────────────┼────────────┼────────────┼──────────────┼───────
│  1 │   0.15411 │     0.15411 │  0.0106942 │      0.009 │   0.00157627 │ 0.00 ⋯
│  2 │  0.144746 │ -0.00551077 │  0.0226249 │    0.00855 │   0.00456974 │ 0.00 ⋯
│  3 │  0.135886 │ -0.00524152 │  0.0211295 │  0.0081225 │   0.00417893 │ 0.00 ⋯
│  4 │  0.127503 │  -0.0049856 │  0.0197166 │ 0.00771638 │    0.0038111 │ 0.00 ⋯
│  5 │  0.119573 │ -0.00474235 │  0.0183819 │ 0.00733056 │   0.00346504 │ 0.00 ⋯
│  6 │  0.112073 │ -0.00451112 │  0.0171213 │ 0.00696403 │   0.00313957 │  0.0 ⋯
│  7 │   0.10498 │ -0.00429134 │   0.015931 │ 0.00661583 │   0.00283361 │ 0.00 ⋯
│  8 │ 0.0982728 │ -0.00408242 │  0.0148073 │ 0.00628504 │    0.0025461 │ 0.00 ⋯
│  9 │ 0.0919321 │ -0.00388383 │  0.0137467 │ 0.00597078 │   0.00227607 │ 0.00 ⋯
│ 10 │ 0.0859388 │ -0.00369505 │  0.0127459 │ 0.00567224 │   0.00202256 │  0.0 ⋯
│ 11 │ 0.0802747 │ -0.00351559 │  0.0118018 │ 0.00538863 │   0.00178469 │ 0.00 ⋯
│ 12 │ 0.0749228 │   -0.003345 │  0.0109115 │  0.0051192 │   0.00156161 │ 0.00 ⋯
│ 13 │ 0.0698669 │ -0.00318282 │   0.010072 │ 0.00486324 │   0.00135252 │ 0.00 ⋯
│ 14 │ 0.0650916 │ -0.00302865 │ 0.00928073 │ 0.00462008 │   0.00115667 │ 0.00 ⋯
│ 15 │ 0.0605822 │ -0.00288208 │ 0.00853512 │ 0.00438907 │  0.000973331 │ 0.00 ⋯
│ 16 │  0.056325 │ -0.00274273 │ 0.00783277 │ 0.00416962 │  0.000801819 │ 0.00 ⋯
│ ⋮  │     ⋮     │      ⋮      │     ⋮      │     ⋮      │      ⋮       │      ⋱
└────┴───────────┴─────────────┴────────────┴────────────┴──────────────┴───────
                                                  5 columns and 184 rows omitted
…
