Macro II - Fluctuations - Part II
…
1-element LinearIndices{1, Tuple{Base.OneTo{Int64}}}:
 1

Dict{Symbol, AxisArrayTables.AxisArrayTable} with 1 entry:
  :epsilon => ┌────┬────────────┬────────────┬──────────────┬───────────┬──────…

using Plots

fieldnames(typeof(irfs))

(:slots, :keys, :vals, :ndel, :count, :age, :idxfloor, :maxprobe)

irf = irfs[:epsilon]

┌────┬────────────┬────────────┬──────────────┬───────────┬─────────────┬───────
│    │          a │          c │            r │         w │           n │      ⋯
├────┼────────────┼────────────┼──────────────┼───────────┼─────────────┼───────
│  1 │      0.009 │ 0.00295975 │   0.00052584 │ 0.0132134 │  0.00200529 │ 0.00 ⋯
│  2 │    0.00855 │ 0.00329395 │  0.000458726 │ 0.0134969 │   0.0018031 │  0.0 ⋯
│  3 │  0.0081225 │ 0.00358342 │   0.00039734 │ 0.0137113 │  0.00161694 │  0.0 ⋯
│  4 │ 0.00771638 │ 0.00383203 │  0.000341257 │ 0.0138634 │  0.00144566 │   0. ⋯
│  5 │ 0.00733056 │ 0.00404336 │  0.000290081 │ 0.0139592 │   0.0012882 │  0.0 ⋯
│  6 │ 0.00696403 │ 0.00422072 │  0.000243447 │ 0.0140044 │  0.00114356 │  0.0 ⋯
│  7 │ 0.00661583 │ 0.00436716 │   0.00020101 │ 0.0140041 │  0.00101082 │  0.0 ⋯
│  8 │ 0.00628504 │ 0.00448551 │  0.000162454 │ 0.0139632 │   0.0008891 │  0.0 ⋯
│  9 │ 0.00597078 │ 0.00457838 │  0.000127481 │ 0.0138861 │ 0.000777603 │  0.0 ⋯
│ 10 │ 0.00567224 │ 0.00464819 │    9.5817e-5 │ 0.0137767 │ 0.000675575 │  0.0 ⋯
│ 11 │ 0.00538863 │ 0.00469715 │   6.72053e-5 │ 0.0136388 │ 0.000582317 │  0.0 ⋯
│ 12 │  0.0051192 │ 0.00472732 │    4.1408e-5 │ 0.0134758 │ 0.000497178 │  0.0 ⋯
│ 13 │ 0.00486324 │ 0.00474058 │    1.8204e-5 │ 0.0132908 │  0.00041955 │  0.0 ⋯
│ 14 │ 0.00462008 │ 0.00473868 │  -2.61204e-6 │ 0.0130867 │ 0.000348869 │  0.0 ⋯
│ 15 │ 0.00438907 │ 0.00472321 │  -2.12309e-5 │  0.012866 │ 0.000284609 │  0.0 ⋯
│ 16 │ 0.00416962 │ 0.00469565 │  -3.78295e-5 │ 0.0126311 │ 0.000226283 │  0.0 ⋯
│ ⋮  │     ⋮      │     ⋮      │      ⋮       │     ⋮     │      ⋮      │      ⋱
└────┴────────────┴────────────┴──────────────┴───────────┴─────────────┴───────
                                                   3 columns and 24 rows omitted
…
irfs = context.results.model_results[1].irfs

Dict{Symbol, AxisArrayTables.AxisArrayTable} with 1 entry:
  :epsilon => ┌────┬─────────────┬───────────┬─────────────┬────────────┬──────…

irf = irfs[:epsilon]

┌────┬─────────────┬───────────┬─────────────┬────────────┬────────────┬────────
│    │           b │         k │           i │          y │          a │       ⋯
├────┼─────────────┼───────────┼─────────────┼────────────┼────────────┼────────
│  1 │   -0.191239 │  0.200479 │    0.200479 │  0.0117832 │      0.009 │   0.0 ⋯
│  2 │   -0.162794 │  0.188162 │ -0.00730498 │   0.027586 │    0.00855 │  0.00 ⋯
│  3 │   -0.135772 │  0.176461 │ -0.00699705 │  0.0258912 │  0.0081225 │  0.00 ⋯
│  4 │   -0.110101 │  0.165345 │ -0.00670452 │  0.0242811 │ 0.00771638 │  0.00 ⋯
│  5 │  -0.0857127 │  0.154785 │ -0.00642662 │  0.0227515 │ 0.00733056 │  0.00 ⋯
│  6 │  -0.0625443 │  0.144752 │ -0.00616262 │  0.0212984 │ 0.00696403 │  0.00 ⋯
│  7 │  -0.0405343 │  0.135222 │ -0.00591181 │   0.019918 │ 0.00661583 │  0.00 ⋯
│  8 │  -0.0196248 │  0.126168 │ -0.00567355 │  0.0186066 │ 0.00628504 │  0.00 ⋯
│  9 │ 0.000239224 │  0.117566 │ -0.00544719 │  0.0173607 │ 0.00597078 │  0.00 ⋯
│ 10 │     0.01911 │  0.109395 │ -0.00523216 │  0.0161772 │ 0.00567224 │  0.00 ⋯
│ 11 │   0.0370373 │  0.101632 │ -0.00502788 │  0.0150528 │ 0.00538863 │  0.00 ⋯
│ 12 │   0.0540682 │ 0.0942576 │ -0.00483381 │  0.0139846 │  0.0051192 │   0.0 ⋯
│ 13 │   0.0702476 │ 0.0872517 │ -0.00464944 │  0.0129699 │ 0.00486324 │  0.00 ⋯
│ 14 │    0.085618 │ 0.0805961 │ -0.00447429 │  0.0120059 │ 0.00462008 │  0.00 ⋯
│ 15 │     0.10022 │ 0.0742733 │  -0.0043079 │  0.0110901 │ 0.00438907 │  0.00 ⋯
│ 16 │    0.114092 │ 0.0682666 │ -0.00414983 │    0.01022 │ 0.00416962 │  0.00 ⋯
│ ⋮  │      ⋮      │     ⋮     │      ⋮      │     ⋮      │     ⋮      │       ⋱
└────┴─────────────┴───────────┴─────────────┴────────────┴────────────┴────────
                                                  4 columns and 184 rows omitted
